0.15389,0.9854,0.14727,0.86076,0.14765,0.57487,-0.025276,0.7378,-0.063955,0.48216,-0.069978,0.16208,0.31536,0.72987,0.36184,0.47592,0.37317,0.14212,0.067451,0.27177,0.029621,-0.12728,0.018173,-0.54062,0.22298,0.27309,0.2627,-0.13022,0.26246,-0.52581,1
0.15434,0.98547,0.14769,0.86078,0.14809,0.57483,-0.024419,0.7379,-0.063355,0.4821,-0.068474,0.15998,0.31606,0.72975,0.3621,0.47594,0.37467,0.14232,0.067968,0.27169,0.030054,-0.12685,0.018134,-0.54049,0.22325,0.27302,0.26295,-0.13068,0.26267,-0.52577,1
0.1549,0.98558,0.14797,0.8608,0.14831,0.57482,-0.024352,0.73797,-0.062918,0.48188,-0.068772,0.16019,0.31624,0.72959,0.36227,0.476,0.37497,0.14212,0.068128,0.27167,0.030449,-0.12693,0.018828,-0.53976,0.22335,0.27301,0.26301,-0.13039,0.26262,-0.52605,1
0.15543,0.98564,0.1486,0.86082,0.14869,0.57484,-0.02387,0.73862,-0.062193,0.4822,-0.069536,0.16027,0.31654,0.7295,0.36261,0.47623,0.3751,0.14301,0.06832,0.27172,0.03059,-0.12693,0.018813,-0.53969,0.22349,0.27299,0.26323,-0.13098,0.26273,-0.52591,1
0.15582,0.98565,0.1491,0.8609,0.14913,0.57492,-0.023573,0.73884,-0.062066,0.48213,-0.068981,0.16093,0.31717,0.72946,0.36279,0.47616,0.3741,0.14213,0.068646,0.27179,0.030704,-0.12694,0.018883,-0.53981,0.22377,0.27308,0.26321,-0.13057,0.26181,-0.52761,1
0.15609,0.98564,0.14919,0.86087,0.14932,0.57485,-0.023587,0.73864,-0.06166,0.48257,-0.068407,0.16092,0.31799,0.72957,0.36311,0.47628,0.37697,0.14386,0.068915,0.27166,0.030739,-0.12695,0.018853,-0.54001,0.22406,0.27295,0.26337,-0.13052,0.26174,-0.52756,1
0.15648,0.98559,0.1497,0.861,0.14967,0.5749,-0.023309,0.73868,-0.061297,0.48311,-0.068181,0.16203,0.31832,0.72949,0.36358,0.47633,0.37478,0.14438,0.069109,0.27167,0.030849,-0.12711,0.018942,-0.54007,0.22423,0.27293,0.26355,-0.13061,0.26196,-0.52864,1
0.15801,0.98505,0.15039,0.86058,0.1504,0.57472,-0.023071,0.73868,-0.060518,0.48421,-0.067712,0.16227,0.31923,0.7296,0.36447,0.47742,0.3785,0.14351,0.069812,0.27178,0.031043,-0.12693,0.018873,-0.54028,0.22497,0.27294,0.26352,-0.1305,0.26199,-0.52839,1
0.16046,0.98413,0.15078,0.86032,0.15095,0.57439,-0.022356,0.7385,-0.060428,0.48402,-0.067292,0.16277,0.32081,0.72971,0.36514,0.47729,0.37967,0.1439,0.070371,0.2715,0.031462,-0.12753,0.019285,-0.53968,0.22586,0.27244,0.26362,-0.13063,0.26168,-0.52969,1
0.16613,0.9822,0.1512,0.85986,0.15121,0.57408,-0.021493,0.73853,-0.060393,0.48402,-0.066339,0.16368,0.32367,0.7294,0.36617,0.47686,0.38206,0.14432,0.070416,0.27155,0.03163,-0.12731,0.019106,-0.53972,0.2259,0.27206,0.26372,-0.13077,0.26192,-0.52883,1
