00096182.png 0.525291,0.362825,0.516665,0.41466,0.543458,0.512696,0.471592,0.421794,0.447746,0.507569,0.41596,0.439219,0.554907,0.430588,0.587255,0.51407,0.611326,0.536129,0.511742,0.599843,0.470383,0.737921,0.487614,0.874248,0.556871,0.621072,0.568404,0.710925,0.590771,0.845819,1
00095942.png 0.52526,0.362807,0.51664,0.414641,0.543429,0.512676,0.471573,0.421777,0.447717,0.507554,0.41594,0.439206,0.554874,0.43057,0.587221,0.514045,0.611302,0.536106,0.511713,0.599819,0.470358,0.737883,0.487586,0.874212,0.556844,0.621045,0.568381,0.710893,0.590745,0.845788,1
00098346.png 0.525265,0.362813,0.516647,0.414653,0.543434,0.512673,0.471568,0.421774,0.447713,0.507558,0.415938,0.439211,0.55488,0.430567,0.58723,0.514053,0.611298,0.536116,0.51172,0.599824,0.470351,0.737898,0.487595,0.874222,0.556836,0.62105,0.568379,0.710897,0.590746,0.84578,1
00098834.png 0.525274,0.362816,0.51665,0.414653,0.543442,0.512687,0.471573,0.421782,0.447729,0.50756,0.415946,0.439211,0.554891,0.430577,0.58724,0.514062,0.611309,0.536119,0.511727,0.599829,0.470372,0.737908,0.487598,0.874227,0.556855,0.621061,0.568388,0.710907,0.590756,0.845794,1
00095822.png 0.525307,0.362838,0.516682,0.414675,0.543476,0.512704,0.471603,0.421803,0.44776,0.507578,0.415975,0.439222,0.554927,0.430594,0.587275,0.514081,0.611336,0.536141,0.51176,0.59986,0.470391,0.737941,0.487634,0.87427,0.556879,0.621084,0.568417,0.710938,0.590782,0.845836,1
00095942.png 0.52526,0.362807,0.51664,0.414641,0.543429,0.512676,0.471573,0.421777,0.447717,0.507554,0.41594,0.439206,0.554874,0.43057,0.587221,0.514045,0.611302,0.536106,0.511713,0.599819,0.470358,0.737883,0.487586,0.874212,0.556844,0.621045,0.568381,0.710893,0.590745,0.845788,1
00098346.png 0.525265,0.362813,0.516647,0.414653,0.543434,0.512673,0.471568,0.421774,0.447713,0.507558,0.415938,0.439211,0.55488,0.430567,0.58723,0.514053,0.611298,0.536116,0.51172,0.599824,0.470351,0.737898,0.487595,0.874222,0.556836,0.62105,0.568379,0.710897,0.590746,0.84578,1
00099726.png 0.525097,0.362698,0.516492,0.414545,0.543272,0.512584,0.471431,0.421669,0.447544,0.507473,0.415794,0.439145,0.554699,0.43048,0.587042,0.513949,0.61116,0.535995,0.511559,0.599675,0.470248,0.737722,0.487421,0.874007,0.556712,0.620919,0.568234,0.710739,0.590604,0.845592,1
00098834.png 0.525274,0.362816,0.51665,0.414653,0.543442,0.512687,0.471573,0.421782,0.447729,0.50756,0.415946,0.439211,0.554891,0.430577,0.58724,0.514062,0.611309,0.536119,0.511727,0.599829,0.470372,0.737908,0.487598,0.874227,0.556855,0.621061,0.568388,0.710907,0.590756,0.845794,1
00098402.png 0.525245,0.362805,0.516635,0.414629,0.543418,0.512663,0.47157,0.421767,0.447707,0.507545,0.415932,0.439203,0.554858,0.430561,0.587209,0.514031,0.611298,0.536099,0.511699,0.599808,0.470342,0.737865,0.487577,0.874204,0.556829,0.621032,0.568377,0.71088,0.590739,0.845771,1
00098834.png 0.525274,0.362816,0.51665,0.414653,0.543442,0.512687,0.471573,0.421782,0.447729,0.50756,0.415946,0.439211,0.554891,0.430577,0.58724,0.514062,0.611309,0.536119,0.511727,0.599829,0.470372,0.737908,0.487598,0.874227,0.556855,0.621061,0.568388,0.710907,0.590756,0.845794,1
00098402.png 0.525245,0.362805,0.516635,0.414629,0.543418,0.512663,0.47157,0.421767,0.447707,0.507545,0.415932,0.439203,0.554858,0.430561,0.587209,0.514031,0.611298,0.536099,0.511699,0.599808,0.470342,0.737865,0.487577,0.874204,0.556829,0.621032,0.568377,0.71088,0.590739,0.845771,1
00099726.png 0.525097,0.362698,0.516492,0.414545,0.543272,0.512584,0.471431,0.421669,0.447544,0.507473,0.415794,0.439145,0.554699,0.43048,0.587042,0.513949,0.61116,0.535995,0.511559,0.599675,0.470248,0.737722,0.487421,0.874007,0.556712,0.620919,0.568234,0.710739,0.590604,0.845592,1
00095822.png 0.525307,0.362838,0.516682,0.414675,0.543476,0.512704,0.471603,0.421803,0.44776,0.507578,0.415975,0.439222,0.554927,0.430594,0.587275,0.514081,0.611336,0.536141,0.51176,0.59986,0.470391,0.737941,0.487634,0.87427,0.556879,0.621084,0.568417,0.710938,0.590782,0.845836,1
00095942.png 0.52526,0.362807,0.51664,0.414641,0.543429,0.512676,0.471573,0.421777,0.447717,0.507554,0.41594,0.439206,0.554874,0.43057,0.587221,0.514045,0.611302,0.536106,0.511713,0.599819,0.470358,0.737883,0.487586,0.874212,0.556844,0.621045,0.568381,0.710893,0.590745,0.845788,1
00095942.png 0.52526,0.362807,0.51664,0.414641,0.543429,0.512676,0.471573,0.421777,0.447717,0.507554,0.41594,0.439206,0.554874,0.43057,0.587221,0.514045,0.611302,0.536106,0.511713,0.599819,0.470358,0.737883,0.487586,0.874212,0.556844,0.621045,0.568381,0.710893,0.590745,0.845788,1
00099726.png 0.525097,0.362698,0.516492,0.414545,0.543272,0.512584,0.471431,0.421669,0.447544,0.507473,0.415794,0.439145,0.554699,0.43048,0.587042,0.513949,0.61116,0.535995,0.511559,0.599675,0.470248,0.737722,0.487421,0.874007,0.556712,0.620919,0.568234,0.710739,0.590604,0.845592,1
00098346.png 0.525265,0.362813,0.516647,0.414653,0.543434,0.512673,0.471568,0.421774,0.447713,0.507558,0.415938,0.439211,0.55488,0.430567,0.58723,0.514053,0.611298,0.536116,0.51172,0.599824,0.470351,0.737898,0.487595,0.874222,0.556836,0.62105,0.568379,0.710897,0.590746,0.84578,1
00096522.png 0.525291,0.362825,0.516663,0.41466,0.543461,0.512702,0.471591,0.421798,0.447752,0.507568,0.415965,0.43921,0.554911,0.43059,0.587258,0.514071,0.611327,0.536125,0.511745,0.599845,0.470394,0.737921,0.487613,0.874245,0.556876,0.621074,0.568407,0.710924,0.590772,0.845824,1
00095822.png 0.525307,0.362838,0.516682,0.414675,0.543476,0.512704,0.471603,0.421803,0.44776,0.507578,0.415975,0.439222,0.554927,0.430594,0.587275,0.514081,0.611336,0.536141,0.51176,0.59986,0.470391,0.737941,0.487634,0.87427,0.556879,0.621084,0.568417,0.710938,0.590782,0.845836,1
00098402.png 0.525245,0.362805,0.516635,0.414629,0.543418,0.512663,0.47157,0.421767,0.447707,0.507545,0.415932,0.439203,0.554858,0.430561,0.587209,0.514031,0.611298,0.536099,0.511699,0.599808,0.470342,0.737865,0.487577,0.874204,0.556829,0.621032,0.568377,0.71088,0.590739,0.845771,1
00095822.png 0.525307,0.362838,0.516682,0.414675,0.543476,0.512704,0.471603,0.421803,0.44776,0.507578,0.415975,0.439222,0.554927,0.430594,0.587275,0.514081,0.611336,0.536141,0.51176,0.59986,0.470391,0.737941,0.487634,0.87427,0.556879,0.621084,0.568417,0.710938,0.590782,0.845836,1
00096522.png 0.525291,0.362825,0.516663,0.41466,0.543461,0.512702,0.471591,0.421798,0.447752,0.507568,0.415965,0.43921,0.554911,0.43059,0.587258,0.514071,0.611327,0.536125,0.511745,0.599845,0.470394,0.737921,0.487613,0.874245,0.556876,0.621074,0.568407,0.710924,0.590772,0.845824,1
00096182.png 0.525291,0.362825,0.516665,0.41466,0.543458,0.512696,0.471592,0.421794,0.447746,0.507569,0.41596,0.439219,0.554907,0.430588,0.587255,0.51407,0.611326,0.536129,0.511742,0.599843,0.470383,0.737921,0.487614,0.874248,0.556871,0.621072,0.568404,0.710925,0.590771,0.845819,1
00098834.png 0.525274,0.362816,0.51665,0.414653,0.543442,0.512687,0.471573,0.421782,0.447729,0.50756,0.415946,0.439211,0.554891,0.430577,0.58724,0.514062,0.611309,0.536119,0.511727,0.599829,0.470372,0.737908,0.487598,0.874227,0.556855,0.621061,0.568388,0.710907,0.590756,0.845794,1
